<?xml version="1.0" encoding="utf-8"?>
<!-- Generator: Adobe Illustrator 22.1.0, SVG Export Plug-In . SVG Version: 6.00 Build 0)  -->
<svg version="1.1" id="Layer_1" xmlns="http://www.w3.org/2000/svg" xmlns:xlink="http://www.w3.org/1999/xlink" x="0px" y="0px"
	 viewBox="0 0 30 30" style="enable-background:new 0 0 30 30;" xml:space="preserve">
<style type="text/css">
	.st0{fill:#010101;}
</style>
<g>
	<g>
		<g>
			<path class="st0" d="M11.6,11.7c-0.3-0.3-0.6-0.4-1-0.4c-0.8,0-1.4,0.6-1.4,1.3c0,0.2,0.2,0.4,0.4,0.4c0,0,0,0,0,0
				c0.2,0,0.4-0.2,0.4-0.4c0-0.3,0.2-0.5,0.5-0.5c0.1,0,0.3,0.1,0.4,0.2c0.2,0.2,0.4,0.2,0.6,0C11.8,12.1,11.8,11.8,11.6,11.7z"/>
		</g>
	</g>
	<g>
		<g>
			<path class="st0" d="M13.9,13.1c-0.1-0.3-0.4-0.6-0.7-0.7c-0.6-0.2-1.4,0.1-1.6,0.7c-0.1,0.2,0,0.5,0.3,0.6c0.1,0,0.1,0,0.2,0
				c0.2,0,0.3-0.1,0.4-0.3c0.1-0.2,0.3-0.3,0.5-0.2c0.1,0,0.2,0.1,0.2,0.2c0.1,0.2,0.4,0.3,0.6,0.2C13.9,13.6,14,13.3,13.9,13.1z"/>
		</g>
	</g>
	<g>
		<g>
			<path class="st0" d="M16.8,9.2c-0.2-0.2-0.5-0.2-0.6,0l-0.4,0.4c-0.2,0.2-0.2,0.5,0,0.6c0.1,0.1,0.2,0.1,0.3,0.1
				c0.1,0,0.2,0,0.3-0.1l0.4-0.4C16.9,9.6,16.9,9.4,16.8,9.2z"/>
		</g>
	</g>
	<g>
		<g>
			<path class="st0" d="M14,14.9h-0.6c-0.2,0-0.4,0.2-0.4,0.4c0,0.2,0.2,0.4,0.4,0.4H14c0.2,0,0.4-0.2,0.4-0.4
				C14.5,15.1,14.3,14.9,14,14.9z"/>
		</g>
	</g>
	<g>
		<g>
			<path class="st0" d="M18.5,14.9h-0.6c-0.2,0-0.4,0.2-0.4,0.4c0,0.2,0.2,0.4,0.4,0.4h0.6c0.2,0,0.4-0.2,0.4-0.4
				C19,15.1,18.8,14.9,18.5,14.9z"/>
		</g>
	</g>
	<g>
		<g>
			<path class="st0" d="M30,22.8l-0.1-0.6c-0.1-0.4-0.4-0.7-0.8-0.7c-0.1,0-0.1,0-0.2,0l-2.3,0.4l1.1-0.7c0.3-0.2,0.4-0.5,0.4-0.8
				c0-0.1,0-0.2-0.1-0.3l-0.3-0.6c-0.1-0.2-0.3-0.3-0.5-0.4c-0.1,0-0.2,0-0.3,0c0.1-0.6,0.2-1.3,0.2-2c0-0.3-0.2-0.6-0.4-0.7
				c0.3-0.8,0.4-1.7,0-2.5c0-0.1-0.1-0.1-0.1-0.2c-0.1-0.1-0.1-0.1-0.2-0.1c-0.4-0.2-0.8-0.2-1.2-0.2c-0.1,0-0.1,0-0.2,0
				c-0.1-1.2-1.1-2.2-2.3-2.2c-0.2,0-0.3,0-0.5,0c0.1-0.6,0-1.3-0.2-1.9c0-0.1-0.1-0.1-0.1-0.2C21.6,9.1,21.6,9,21.5,9
				c-0.4-0.2-0.9-0.3-1.3-0.3c-0.7,0-1.4,0.2-1.9,0.6c-0.2-0.6-0.6-1.2-1-1.7c-0.1-0.1-0.3-0.2-0.5-0.2s-0.4,0.1-0.5,0.2L14,9.8
				c-0.4-0.4-0.9-0.6-1.5-0.6c-0.1,0-0.3,0-0.4,0c-0.5,0.1-0.9,0.3-1.2,0.6c-0.4-0.2-0.9-0.3-1.3-0.2c-0.1,0-0.2,0-0.3,0.1V8.1
				c0-1.1-0.9-2.1-2-2.1V5.1c0.3-0.1,0.6-0.4,0.6-0.7V2.3c0-0.4-0.3-0.7-0.7-0.7H3.6c-0.4,0-0.7,0.3-0.7,0.7v2.1
				c0,0.4,0.3,0.7,0.6,0.7v0.9c-1.1,0-2,0.9-2,2.1V21C0.5,21.7,0,22.9,0,24.1c0,2.4,2.1,4.4,4.7,4.4l17.6,0c0.6,0,1.2-0.3,1.5-0.7
				c0.4-0.4,0.5-1,0.4-1.6l3.5,0.6c0,0,0.1,0,0.1,0c0.2,0,0.3-0.1,0.5-0.2c0.2-0.1,0.3-0.3,0.3-0.6l0.1-0.6c0-0.1,0-0.2,0-0.3
				c-0.1-0.3-0.3-0.6-0.6-0.7L27,24.2l2.3-0.4c0.2,0,0.4-0.2,0.5-0.3C30,23.2,30,23,30,22.8z M25,14.3c0.3,0,0.5,0,0.8,0.1
				c0.2,0.7,0.1,1.4-0.2,2h-1.2l0.4-0.4c0.2-0.2,0.2-0.5,0-0.6c-0.2-0.2-0.5-0.2-0.6,0l-0.2,0.2c-0.1-0.3-0.3-0.6-0.5-0.8
				C23.9,14.5,24.4,14.3,25,14.3z M22.5,12.1c0.8,0,1.4,0.6,1.4,1.4c0,0,0,0,0,0c-0.5,0.2-0.9,0.4-1.3,0.7c-0.1,0-0.1,0-0.2-0.1
				c-0.1-0.7-0.6-1.3-1.2-1.5C21.5,12.3,22,12.1,22.5,12.1z M20.2,9.6c0.3,0,0.6,0,0.9,0.1c0.2,0.7,0.2,1.4-0.1,2
				c-0.2,0.2-0.4,0.5-0.6,0.8c-0.1,0-0.2,0-0.2,0c-0.3,0.1-0.7,0.2-0.9,0.4c-0.1-0.2-0.2-0.3-0.3-0.5l1-1c0.2-0.2,0.2-0.5,0-0.6
				c-0.2-0.2-0.5-0.2-0.6,0L18.1,12c-0.2-0.1-0.4-0.2-0.7-0.2c0.1-0.5,0.4-1,0.8-1.4C18.7,9.9,19.4,9.6,20.2,9.6z M16.8,16.4h-0.4
				c-0.1-0.2-0.2-0.3-0.4-0.3c-0.2,0-0.3,0.1-0.4,0.3h-0.4c0.1-0.2,0.1-0.4-0.1-0.5c-0.2-0.2-0.5-0.2-0.6,0L14,16.3
				c0,0-0.1,0.1-0.1,0.1h-0.9c-0.3-0.5-0.5-1.1-0.6-1.8h7c0,0.7-0.2,1.3-0.6,1.8H18c0,0,0-0.1-0.1-0.1l-0.4-0.4
				c-0.2-0.2-0.4-0.2-0.6,0C16.7,16,16.7,16.3,16.8,16.4z M15.8,13.8c0.2-0.6,0.7-1.1,1.4-1.1c0.7,0,1.2,0.5,1.4,1.1L15.8,13.8
				L15.8,13.8z M16.7,8.4c0.4,0.5,0.7,1,0.8,1.6c-0.2,0.2-0.4,0.5-0.6,0.8c-0.1,0-0.1-0.1-0.2-0.1h-0.6c-0.2,0-0.4,0.2-0.4,0.4
				c0,0.2,0.2,0.4,0.4,0.4h0.5c0,0.1-0.1,0.2-0.1,0.4c-0.2,0-0.3,0.1-0.5,0.2c-0.3-0.5-0.8-0.9-1.4-1c0,0,0,0,0,0
				c0-0.2-0.1-0.4-0.2-0.6L16.7,8.4z M8.7,12.3c0-0.1,0-0.1-0.1-0.2c-0.1-0.7,0.4-1.4,1.1-1.5c0.1,0,0.2,0,0.2,0
				c0.3,0,0.6,0.1,0.8,0.3c0.1,0.1,0.2,0.1,0.3,0.1c0.1,0,0.2-0.1,0.3-0.2c0.2-0.3,0.5-0.5,0.9-0.6c0.1,0,0.2,0,0.2,0
				c0.7,0,1.2,0.5,1.3,1.1c0,0.1,0,0.2,0,0.2c0,0.2,0.2,0.4,0.4,0.4c0.5,0,0.9,0.4,1.1,0.8c-0.3,0.3-0.4,0.7-0.5,1.1h-2.5
				c-0.3,0-0.6,0.2-0.7,0.5c-0.6-0.4-1.2-0.6-1.9-0.6c-0.4,0-0.8,0.1-1.2,0.2c-0.1,0-0.1,0.1-0.2,0.1c-0.1,0.1-0.1,0.1-0.1,0.2
				C8.2,14.5,8.1,14.7,8,15c-0.2-0.2-0.3-0.4-0.3-0.7c-0.1-0.6,0.2-1.2,0.8-1.4C8.7,12.8,8.8,12.6,8.7,12.3z M10,16.3l0.1,0.1H9.1
				c-0.2-0.5-0.3-1.2-0.1-1.8c0.3-0.1,0.5-0.1,0.8-0.1c0.7,0,1.3,0.3,1.8,0.7c0.1,0.1,0.1,0.1,0.2,0.2c0.1,0.3,0.2,0.7,0.3,1h-0.7
				l-0.7-0.7c-0.2-0.2-0.4-0.2-0.6,0C9.9,15.9,9.9,16.1,10,16.3z M8.2,16.4H6.6c0.1-0.4,0.3-0.8,0.7-1c0.2,0.3,0.5,0.5,0.8,0.7
				C8.1,16.2,8.1,16.3,8.2,16.4z M3.7,2.4H7v1.8H3.7V2.4z M6.4,5.1v0.9H4.3V5.1H6.4z M2.3,9.9h2.9c0.2,0,0.4-0.2,0.4-0.4
				C5.6,9.2,5.4,9,5.2,9H2.3V8.1c0-0.7,0.5-1.2,1.2-1.2h3.8c0.7,0,1.2,0.5,1.2,1.2V9H7.6C7.4,9,7.2,9.2,7.2,9.5
				c0,0.2,0.2,0.4,0.4,0.4h0.8v0.4c-0.5,0.5-0.8,1.2-0.6,2c0,0,0,0,0,0c-0.7,0.5-1.1,1.3-0.9,2.2c0,0.1,0,0.1,0,0.1
				c-0.2,0.1-0.4,0.3-0.6,0.5h-4V9.9z M2.3,16L2.3,16h3.5c0,0.1-0.1,0.3-0.1,0.5H5.6c-0.4,0-0.7,0.3-0.7,0.7c0,0.7,0.1,1.4,0.2,2.1
				c-0.1,0-0.3,0-0.4,0c-0.5,0-1,0.1-1.4,0.2c-0.6,0.2-0.8,0.6-0.8,0.8c-0.1,0-0.1,0.1-0.2,0.1C2.3,20.3,2.3,16,2.3,16z M7.9,21.4
				c0.2,0.1,0.3,0.2,0.3,0.3c0,0,0,0,0,0c-0.2,0-0.7-0.1-1.2-0.4c-0.2-0.1-0.4-0.2-0.5-0.3c-0.2-0.1-0.4-0.1-0.6,0
				c-0.1,0.1-0.3,0.2-0.5,0.3c-0.5,0.3-1,0.4-1.2,0.4c0,0,0,0,0,0c0.1-0.1,0.2-0.2,0.3-0.3c0.1-0.1,0.2-0.3,0.1-0.5
				c0-0.2-0.2-0.3-0.4-0.3c-0.4-0.1-0.7-0.2-0.8-0.2c0.2-0.1,0.6-0.3,1.3-0.3c0.6,0,1,0.1,1.2,0.2c0.1,0.1,0.3,0.1,0.4,0
				c0.2-0.1,0.6-0.2,1.2-0.2c0.7,0,1.1,0.2,1.3,0.3c-0.1,0.1-0.4,0.2-0.8,0.2c-0.2,0-0.3,0.1-0.4,0.3C7.7,21.1,7.7,21.3,7.9,21.4z
				 M7,26.7L7,26.7c0.1,0.4,0.2,0.6,0.3,0.8H4.7c-2.1,0-3.8-1.6-3.8-3.5c0-1.3,0.8-2.5,2-3.1c0.1,0.1,0.3,0.2,0.5,0.3
				c-0.1,0.1-0.1,0.3-0.1,0.4c0,0.2,0,0.4,0.2,0.5c0.2,0.2,0.4,0.3,0.8,0.3c0.5,0,1.1-0.2,1.6-0.5c0.1-0.1,0.2-0.1,0.4-0.2
				c0.1,0.1,0.2,0.2,0.4,0.2c0.6,0.3,1.2,0.5,1.6,0.5h0c0.3,0,0.6-0.1,0.8-0.3c0.1-0.1,0.2-0.3,0.2-0.5c0-0.2-0.1-0.3-0.1-0.4
				c0.2-0.1,0.4-0.2,0.5-0.3c0.9,0.5,1.6,1.3,1.9,2.3l-3.1,1.2C7.3,24.8,6.8,25.8,7,26.7z M23.2,27.1c-0.2,0.3-0.5,0.4-0.9,0.4
				l-0.5,0L21.5,26c0-0.2-0.3-0.4-0.5-0.4c-0.2,0-0.4,0.3-0.4,0.5l0.3,1.4l-1.5,0l-0.2-1.1c0-0.2-0.3-0.4-0.5-0.4
				c-0.2,0-0.4,0.3-0.4,0.5l0.2,0.9l-3.5,0l-0.3-1.4c0-0.2-0.3-0.4-0.5-0.4c-0.2,0-0.4,0.3-0.4,0.5l0.2,1.3l-5.1,0c0,0,0,0,0,0
				c-0.5,0-1-0.4-1.1-0.9l0-0.1c-0.1-0.5,0.2-1.1,0.7-1.3l1.7-0.7l0.1,0.7c0,0.2,0.2,0.4,0.4,0.4c0,0,0.1,0,0.1,0
				c0.2,0,0.4-0.3,0.4-0.5l-0.2-0.9l2.6-1c0.2-0.1,0.3-0.3,0.3-0.6c-0.1-0.2-0.3-0.3-0.6-0.3L12.2,23c-0.3-1.2-1.2-2.2-2.3-2.7
				c0-0.2-0.2-0.6-0.8-0.8c-0.4-0.2-0.9-0.2-1.4-0.2c-0.4,0-0.7,0-1,0.1V19c0-0.2-0.2-0.4-0.4-0.4c-0.1,0-0.2,0-0.3,0.1
				c-0.1-0.5-0.1-0.9-0.1-1.4h14.3c0.2,0,0.4-0.2,0.4-0.4c0-0.2-0.2-0.4-0.4-0.4h-0.2c0.3-0.6,0.4-1.2,0.4-1.9
				c0-0.4-0.3-0.7-0.7-0.7c0.2-0.2,0.4-0.3,0.6-0.3c0.1,0,0.1,0,0.2,0c0.6,0,1,0.4,1.1,1c0,0.1,0,0.1,0,0.2c0,0.2,0.2,0.4,0.4,0.4
				c0.5,0,1,0.4,1,1c0,0.1,0,0.3,0,0.4h-0.5c-0.2,0-0.4,0.2-0.4,0.4c0,0.2,0.2,0.4,0.4,0.4H26c0,0.8-0.1,1.6-0.3,2.4l-2.4,1.4
				c-0.1-0.5-0.5-0.9-1-1.2c-0.5-0.3-1.1-0.3-1.7-0.1l-4.9,1.9c-0.2,0.1-0.3,0.3-0.3,0.6c0.1,0.2,0.3,0.3,0.6,0.3l0.6-0.2l0.2,1.1
				c0,0.2,0.2,0.4,0.4,0.4c0,0,0.1,0,0.1,0c0.2,0,0.4-0.3,0.4-0.5l-0.2-1.2l3.4-1.3c0.3-0.1,0.7-0.1,1,0.1c0.3,0.2,0.5,0.4,0.6,0.8
				l0.9,4.8C23.5,26.5,23.4,26.9,23.2,27.1z M24.7,23.7c-0.2,0-0.4,0.2-0.4,0.4c0,0.2,0.1,0.4,0.3,0.4l3.3,0.8l-0.1,0.5l-3.8-0.7
				L23.5,22l3.3-2l0.3,0.5l-2.8,1.9c-0.2,0.1-0.2,0.3-0.2,0.5c0.1,0.2,0.3,0.3,0.5,0.3l4.4-0.8l0.1,0.5L24.7,23.7z"/>
		</g>
	</g>
</g>
</svg>
