<?xml version="1.0" encoding="utf-8"?>
<!-- Generator: Adobe Illustrator 22.1.0, SVG Export Plug-In . SVG Version: 6.00 Build 0)  -->
<svg version="1.1" id="Layer_1" xmlns="http://www.w3.org/2000/svg" xmlns:xlink="http://www.w3.org/1999/xlink" x="0px" y="0px"
	 viewBox="0 0 30 30" style="enable-background:new 0 0 30 30;" xml:space="preserve">
<style type="text/css">
	.st0{fill:#010101;}
</style>
<g>
	<g>
		<g>
			<path class="st0" d="M30,16.6c-0.1-0.2-0.3-0.3-0.4-0.3h-6.3c-0.1-0.8-0.4-1.4-0.8-2l6.4-7.6C29,6.5,29,6.2,28.8,6
				c-0.2-0.2-0.5-0.1-0.7,0.1l-6.4,7.5c-0.5-0.4-1.2-0.7-1.9-0.9L24.3,2c0.1-0.2,0-0.5-0.3-0.6c-0.2-0.1-0.5,0-0.6,0.3l-4.5,11.1
				c-1,0.1-1.9,0.5-2.5,1.1c-1.1-2-3.1-3.2-5.4-3.2c-3.2,0-5.9,2.5-6.2,5.7H0.5c-0.2,0-0.4,0.1-0.4,0.3C0,16.8,0,17,0.1,17.1l8.5,11
				c0.3,0.4,0.7,0.6,1.2,0.6h10.4c0.5,0,0.9-0.2,1.2-0.6l8.5-11C30,17,30,16.8,30,16.6z M21.8,15.1c0.2,0.4,0.4,0.8,0.5,1.2h-1.1
				c0-0.1-0.1-0.2-0.1-0.3L21.8,15.1z M19.1,13.7C19.1,13.7,19.1,13.7,19.1,13.7C19.1,13.7,19.1,13.7,19.1,13.7c0.7,0,1.4,0.3,2,0.7
				l-0.7,0.8c-0.3-0.3-0.8-0.4-1.2-0.4c-1,0-1.8,0.7-2,1.6H16C16.3,14.8,17.6,13.7,19.1,13.7z M19.8,15.9l-0.3,0.4h-1.2
				c0.2-0.3,0.5-0.6,1-0.6C19.4,15.7,19.6,15.8,19.8,15.9z M10.9,11.6c2.1,0,3.9,1.2,4.8,3.1c-0.3,0.5-0.5,1-0.6,1.6h-0.1
				c-0.2-2-2-3.6-4.1-3.6S7,14.3,6.8,16.3H5.7C5.9,13.7,8.1,11.6,10.9,11.6z M10.9,14.8c-1,0-1.8,0.7-2,1.6H7.7
				c0.2-1.5,1.5-2.7,3.1-2.7s2.9,1.2,3.1,2.7h-1.1C12.6,15.4,11.8,14.8,10.9,14.8z M11.8,16.3H9.9c0.2-0.3,0.5-0.6,1-0.6
				S11.6,16,11.8,16.3z M20.6,27.5c-0.1,0.1-0.3,0.2-0.4,0.2H9.8c-0.2,0-0.3-0.1-0.4-0.2L1.5,17.3h27L20.6,27.5z"/>
			<path class="st0" d="M14,8c0,0.8,0.3,1.3,0.6,1.6c0.2,0.3,0.4,0.5,0.4,1c0,0.3,0.2,0.5,0.5,0.5c0.3,0,0.5-0.2,0.5-0.5
				c0-0.8-0.3-1.3-0.6-1.6C15.1,8.7,15,8.5,15,8c0-0.5,0.2-0.7,0.4-1C15.7,6.7,16,6.2,16,5.4c0-0.8-0.3-1.3-0.6-1.6
				c-0.2-0.3-0.4-0.5-0.4-1c0-0.3-0.2-0.5-0.5-0.5c-0.3,0-0.5,0.2-0.5,0.5c0,0.8,0.3,1.3,0.6,1.6c0.2,0.3,0.4,0.5,0.4,1
				c0,0.5-0.2,0.7-0.4,1C14.3,6.8,14,7.2,14,8z"/>
			<path class="st0" d="M16.6,8.5c0.2,0,0.3-0.1,0.4-0.2c0.4-0.4,1.1-1.3,1.1-2.9c0-0.6-0.1-1.2-0.4-1.8c-0.1-0.2-0.4-0.4-0.6-0.2
				S16.7,3.8,16.8,4c0.2,0.4,0.3,0.9,0.3,1.4c0,1.2-0.5,1.9-0.9,2.3c-0.1,0.1-0.1,0.2-0.1,0.3C16.1,8.3,16.4,8.5,16.6,8.5z"/>
			<path class="st0" d="M12.7,10c0.1,0,0.1,0,0.2,0c0.2-0.1,0.4-0.4,0.3-0.6C13,8.9,12.9,8.5,12.9,8c0-1.2,0.5-1.9,0.9-2.3
				c0,0,0,0,0,0c0.1-0.2,0.1-0.4,0-0.5c-0.1-0.2-0.5-0.3-0.7-0.1C13.1,5,13,5.1,13,5.1c-0.4,0.5-1,1.4-1,2.9c0,0.6,0.1,1.2,0.4,1.7
				C12.4,9.9,12.5,10,12.7,10z"/>
		</g>
	</g>
</g>
</svg>
