<?xml version="1.0" encoding="utf-8"?>
<!-- Generator: Adobe Illustrator 23.0.1, SVG Export Plug-In . SVG Version: 6.00 Build 0)  -->
<svg version="1.1" id="Layer_1" xmlns="http://www.w3.org/2000/svg" xmlns:xlink="http://www.w3.org/1999/xlink" x="0px" y="0px"
	 viewBox="0 0 30 30" style="enable-background:new 0 0 30 30;" xml:space="preserve">
<g>
	<path d="M22.7,5.1c-0.7,0-1.3,0.1-1.9,0.4c-0.8-2.5-3.2-4.3-5.8-4.3c-2.6,0-5,1.7-5.8,4.2C8.6,5.2,7.9,5.1,7.3,5.1
		c-2.7,0-4.8,2.2-4.8,4.8c0,2.6,2.1,4.7,4.7,4.8l0.9,11.1c0,0.3,0.3,0.5,0.5,0.5h1.7c0.2,0.8,0.9,1.3,1.7,1.3c0.5,0,1.4-0.4,2.2-0.8
		c-0.2,0.4-0.5,0.8-1.1,1.1c-0.2,0.1-0.4,0.4-0.3,0.7c0.1,0.1,0.2,0.2,0.3,0.3c0.1,0,0.1,0,0.2,0c0.1,0,0.2,0,0.2-0.1
		c0.6-0.3,1.1-0.7,1.4-1.2c0.3,0.5,0.8,0.9,1.4,1.2c0.1,0.1,0.3,0.1,0.4,0c0.1-0.1,0.2-0.2,0.3-0.3c0.1-0.3,0-0.5-0.3-0.7
		c-0.6-0.3-1-0.7-1.1-1.1c0.8,0.4,1.8,0.8,2.2,0.8c0.8,0,1.5-0.5,1.7-1.3h1.7c0.3,0,0.5-0.2,0.5-0.5l0.6-7.5c0-0.1,0-0.3-0.1-0.4
		c-0.1-0.1-0.2-0.2-0.4-0.2c0,0,0,0,0,0c-0.3,0-0.5,0.2-0.5,0.5l-0.2,2.3h-3.1l0.8-4.5c0-0.3-0.1-0.6-0.4-0.6c-0.1,0-0.3,0-0.4,0.1
		s-0.2,0.2-0.2,0.3l-0.8,4.7h-1.6V15c0-0.3-0.2-0.5-0.5-0.5s-0.5,0.2-0.5,0.5v5.5h-1.6l-0.8-4.7c0-0.3-0.3-0.5-0.6-0.4
		c-0.3,0-0.5,0.3-0.4,0.6l0.8,4.5H8.7l-0.5-5.9c1.2-0.2,2.2-0.9,2.9-1.8c0.1-0.1,0.1-0.3,0.1-0.4c0-0.1-0.1-0.3-0.2-0.3
		c-0.1-0.1-0.3-0.1-0.4-0.1c-0.1,0-0.3,0.1-0.3,0.2c-0.7,1-1.8,1.5-3,1.5c-2.1,0-3.8-1.7-3.8-3.8s1.7-3.8,3.8-3.8
		c0.7,0,1.3,0.2,1.9,0.5c0.1,0.1,0.3,0.1,0.5,0C9.9,6.6,10,6.5,10,6.3c0.5-2.3,2.5-4,4.9-4c2.4,0,4.5,1.7,5,4.1
		c0,0.2,0.1,0.3,0.3,0.4s0.3,0.1,0.5,0c0.6-0.4,1.3-0.6,2-0.6c2.1,0,3.8,1.7,3.8,3.8s-1.7,3.8-3.8,3.8c-1.1,0-2.2-0.5-2.9-1.4
		C19.6,12,19.3,12,19,12.1c-0.1,0.1-0.2,0.2-0.2,0.4c0,0.1,0,0.3,0.1,0.4c0.7,0.9,1.7,1.5,2.8,1.7l-0.1,1.8c0,0.1,0,0.3,0.1,0.4
		c0.1,0.1,0.2,0.2,0.4,0.2c0,0,0,0,0,0c0.3,0,0.5-0.2,0.5-0.5l0.1-1.7c2.6,0,4.7-2.2,4.7-4.8C27.5,7.2,25.4,5.1,22.7,5.1z M8.8,21.5
		h12.4l-0.3,3.7h-1.2c-0.2-0.8-0.9-1.3-1.7-1.3c-0.7,0-2.1,0.7-3,1.2c-0.9-0.5-2.3-1.2-3-1.2c-0.8,0-1.5,0.5-1.7,1.3H9.1L8.8,21.5z
		 M12,24.9c0.2,0,1,0.3,1.9,0.8c-0.9,0.5-1.6,0.8-1.9,0.8c-0.4,0-0.8-0.3-0.8-0.8S11.6,24.9,12,24.9z M18,24.9
		c0.4,0,0.8,0.3,0.8,0.8s-0.3,0.8-0.8,0.8c-0.2,0-1-0.3-1.9-0.8C17,25.2,17.8,24.9,18,24.9z"/>
	<path d="M17.5,11.5c-0.8,0.6-1.8,0.9-2.8,0.9c-0.8,0-1.5-0.2-2.2-0.5c-0.3-0.1-0.6,0-0.7,0.2c-0.1,0.3,0,0.6,0.2,0.7
		c0.8,0.4,1.7,0.6,2.7,0.6c1.2,0,2.4-0.4,3.4-1.1c0.2-0.2,0.3-0.5,0.1-0.7l0,0C18.1,11.3,17.7,11.3,17.5,11.5z"/>
</g>
</svg>
